<?xml version="1.0" encoding="utf-8"?>
<!-- Generator: Adobe Illustrator 23.1.1, SVG Export Plug-In . SVG Version: 6.00 Build 0)  -->
<svg version="1.1" id="Layer_1" xmlns="http://www.w3.org/2000/svg" xmlns:xlink="http://www.w3.org/1999/xlink" x="0px" y="0px"
	 viewBox="0 0 255.3 293" style="enable-background:new 0 0 255.3 293;" xml:space="preserve">
<style type="text/css">
	.st0{fill:none;stroke:#1CCC3E;stroke-width:22;stroke-linejoin:round;stroke-miterlimit:10;}
	.st1{fill:#FFFFFF;}
</style>
<path class="st0" d="M11,118.3v56.8c0,7.8,3.4,15.1,9.2,20.2l93.4,81.3c8,7,20,7,28,0l93.4-81.3c5.9-5.1,9.2-12.5,9.2-20.2v-56.8
	c0-7.7-3.3-15.1-9.2-20.2l-93.4-81.7c-8-7-20-7-28.1,0L20.2,98.2C14.4,103.2,11,110.6,11,118.3z"/>
<path class="st1" d="M127.3,70.7V58.1c0,0-9.9-0.1-11.6,0s-11.1-0.6-11,12.1s10.5,12.1,10.5,12.1C128.3,82.5,127.3,70.7,127.3,70.7z
	 M116.8,77.5h-2.2c0,0-5.2-0.3-5.2-6.1v-2.3c0,0-0.2-6.4,5.4-6.4h7.5V71C122.4,71,122.8,77.5,116.8,77.5L116.8,77.5z"/>
<path class="st1" d="M150.6,58v5H140c0,0-6.1-0.1-6.1,6.7s4.5,7,6.3,7.2c1.7,0.1,10.5,0,10.5,0v4.8h-11.2c0,0-10.2,0.7-10.2-12
	S140.9,58,140.9,58H150.6z"/>
</svg>
